<?xml version="1.0" encoding="UTF-8" standalone="no"?>
<!-- Created with Inkscape (http://www.inkscape.org/) -->

<svg
   xmlns:dc="http://purl.org/dc/elements/1.1/"
   xmlns:cc="http://creativecommons.org/ns#"
   xmlns:rdf="http://www.w3.org/1999/02/22-rdf-syntax-ns#"
   xmlns:svg="http://www.w3.org/2000/svg"
   xmlns="http://www.w3.org/2000/svg"
   xmlns:sodipodi="http://sodipodi.sourceforge.net/DTD/sodipodi-0.dtd"
   xmlns:inkscape="http://www.inkscape.org/namespaces/inkscape"
   width="267.11664"
   height="267.11664"
   viewBox="0 0 70.674609 70.67461"
   version="1.1"
   id="svg848"
   inkscape:version="0.92.1 r15371"
   sodipodi:docname="icon.svg"
   inkscape:export-filename="/home/david/Documentos/HTML_SVG/gnss.png"
   inkscape:export-xdpi="6.3200002"
   inkscape:export-ydpi="6.3200002">
  <defs
     id="defs842" />
  <sodipodi:namedview
     id="base"
     pagecolor="#ffffff"
     bordercolor="#666666"
     borderopacity="1.0"
     inkscape:pageopacity="0.0"
     inkscape:pageshadow="2"
     inkscape:zoom="0.98994949"
     inkscape:cx="-73.550278"
     inkscape:cy="-22.166096"
     inkscape:document-units="mm"
     inkscape:current-layer="layer1"
     showgrid="false"
     units="px"
     fit-margin-top="5"
     fit-margin-right="5"
     fit-margin-bottom="5"
     fit-margin-left="5"
     inkscape:window-width="1920"
     inkscape:window-height="1021"
     inkscape:window-x="0"
     inkscape:window-y="0"
     inkscape:window-maximized="1"
     showguides="true"
     inkscape:guide-bbox="true">
    <sodipodi:guide
       position="-98.655064,40.686758"
       orientation="0,1"
       id="guide862"
       inkscape:locked="false" />
    <sodipodi:guide
       position="-54.988282,103.28092"
       orientation="1,0"
       id="guide868"
       inkscape:locked="false" />
  </sodipodi:namedview>
  <metadata
     id="metadata845">
    <rdf:RDF>
      <cc:Work
         rdf:about="">
        <dc:format>image/svg+xml</dc:format>
        <dc:type
           rdf:resource="http://purl.org/dc/dcmitype/StillImage" />
        <dc:title></dc:title>
      </cc:Work>
    </rdf:RDF>
  </metadata>
  <g
     inkscape:label="Capa 1"
     inkscape:groupmode="layer"
     id="layer1"
     transform="translate(-12.674998,-8.2129502)">
    <g
       id="g26"
       transform="matrix(0.79795774,0,0,0.79795774,-62.376608,-15.493869)">
      <circle
         r="42.362221"
         cy="73.994049"
         cx="138.33929"
         id="circle14"
         style="opacity:1;fill:#ffffff;fill-opacity:1;stroke:#000000;stroke-width:0.5291667;stroke-miterlimit:4;stroke-dasharray:none;stroke-opacity:1" />
      <path
         sodipodi:nodetypes="csssssssssssssc"
         inkscape:connector-curvature="0"
         id="path826"
         d="m 106.01448,78.016198 c 0,0 4.18254,0.979988 5.87993,0 1.04361,-0.602527 0.60253,-3.130822 1.80758,-3.130822 3.2473,0 1.62365,8.436724 4.87095,8.436724 3.12624,0 1.58986,-8.530265 4.68936,-8.122209 2.65116,0.349033 -0.57489,7.39974 2.07627,7.74877 3.49372,0.459957 1.76193,-9.155255 5.28579,-9.155255 4.18956,0 2.09478,10.884794 6.28434,10.884794 6.30736,0 8.01739,-15.818847 9.46104,-16.386998 0.3869,-0.152265 0.96302,4.147238 2.0889,4.15919 1.21395,0.01288 3.02095,-4.252162 4.59528,-4.15919 2.06241,0.121793 1.19041,3.587764 2.45685,4.112337 2.67723,1.108948 3.11366,-5.855478 5.48574,-6.147199 2.12585,-0.26144 2.86852,4.954791 5.11054,4.543581 1.82887,-0.335434 2.58214,-4.944486 2.58214,-4.944486"
         style="fill:none;stroke:#0002ff;stroke-width:1.34937501;stroke-linecap:butt;stroke-linejoin:miter;stroke-miterlimit:4;stroke-dasharray:none;stroke-opacity:1" />
      <path
         inkscape:connector-curvature="0"
         style="opacity:0.87900002;fill:#000000;fill-opacity:1;stroke:none;stroke-width:0.79374999;stroke-miterlimit:4;stroke-dasharray:none;stroke-opacity:1"
         d="m 138.60387,35.638246 a 38.620446,38.620446 0 0 0 -38.620381,38.62038 38.620446,38.620446 0 0 0 38.620381,38.620394 38.620446,38.620446 0 0 0 38.62038,-38.620394 38.620446,38.620446 0 0 0 -38.62038,-38.62038 z m -5.3e-4,7.446573 c 8.16127,-1.37e-4 16.27221,3.359825 22.0431,9.130707 5.77088,5.770888 9.13084,13.881836 9.13071,22.0431 1.3e-4,8.161263 -3.35983,16.272213 -9.13071,22.043101 -5.77089,5.770883 -13.88183,9.130843 -22.0431,9.130713 -8.16125,1.4e-4 -16.27168,-3.35983 -22.04257,-9.130713 -5.77088,-5.770888 -9.13136,-13.881835 -9.13123,-22.043101 -1.3e-4,-8.161264 3.36035,-16.272212 9.13123,-22.0431 5.77089,-5.770882 13.88132,-9.130844 22.04258,-9.130707 z"
         id="path824" />
      <path
         id="path10"
         d="M 138.0747,35.109079 A 38.620446,38.620446 0 0 0 99.454323,73.729459 38.620446,38.620446 0 0 0 138.0747,112.34984 38.620446,38.620446 0 0 0 176.69508,73.729459 38.620446,38.620446 0 0 0 138.0747,35.109079 Z m -5.3e-4,7.446574 c 8.16126,-1.38e-4 16.27221,3.359824 22.0431,9.130707 5.77088,5.770888 9.13084,13.881835 9.13071,22.043099 1.3e-4,8.161263 -3.35983,16.272214 -9.13071,22.043099 -5.77089,5.770882 -13.88184,9.130842 -22.0431,9.130712 -8.16126,1.4e-4 -16.27169,-3.35983 -22.04258,-9.130712 -5.77089,-5.770885 -9.13136,-13.881833 -9.13123,-22.043099 -1.3e-4,-8.161264 3.36034,-16.272211 9.13123,-22.043099 5.77089,-5.770883 13.88132,-9.130845 22.04258,-9.130707 z"
         style="opacity:0.87900002;fill:#d40000;fill-opacity:1;stroke:none;stroke-width:0.79374999;stroke-miterlimit:4;stroke-dasharray:none;stroke-opacity:1"
         inkscape:connector-curvature="0" />
    </g>
  </g>
</svg>
